%YAML 1.1
%TAG !u! tag:unity3d.com,2011:
--- !u!29 &1
OcclusionCullingSettings:
  m_ObjectHideFlags: 0
  serializedVersion: 2
  m_OcclusionBakeSettings:
    smallestOccluder: 5
    smallestHole: 0.25
    backfaceThreshold: 100
  m_SceneGUID: 00000000000000000000000000000000
  m_OcclusionCullingData: {fileID: 0}
--- !u!104 &2
RenderSettings:
  m_ObjectHideFlags: 0
  serializedVersion: 9
  m_Fog: 0
  m_FogColor: {r: 0.5, g: 0.5, b: 0.5, a: 1}
  m_FogMode: 3
  m_FogDensity: 0.01
  m_LinearFogStart: 0
  m_LinearFogEnd: 300
  m_AmbientSkyColor: {r: 0.212, g: 0.227, b: 0.259, a: 1}
  m_AmbientEquatorColor: {r: 0.114, g: 0.125, b: 0.133, a: 1}
  m_AmbientGroundColor: {r: 0.047, g: 0.043, b: 0.035, a: 1}
  m_AmbientIntensity: 1
  m_AmbientMode: 0
  m_SubtractiveShadowColor: {r: 0.42, g: 0.478, b: 0.627, a: 1}
  m_SkyboxMaterial: {fileID: 10304, guid: 0000000000000000f000000000000000, type: 0}
  m_HaloStrength: 0.5
  m_FlareStrength: 1
  m_FlareFadeSpeed: 3
  m_HaloTexture: {fileID: 0}
  m_SpotCookie: {fileID: 10001, guid: 0000000000000000e000000000000000, type: 0}
  m_DefaultReflectionMode: 0
  m_DefaultReflectionResolution: 128
  m_ReflectionBounces: 1
  m_ReflectionIntensity: 1
  m_CustomReflection: {fileID: 0}
  m_Sun: {fileID: 705507994}
  m_IndirectSpecularColor: {r: 0.18028378, g: 0.22571412, b: 0.30692285, a: 1}
  m_UseRadianceAmbientProbe: 0
--- !u!157 &3
LightmapSettings:
  m_ObjectHideFlags: 0
  serializedVersion: 11
  m_GIWorkflowMode: 0
  m_GISettings:
    serializedVersion: 2
    m_BounceScale: 1
    m_IndirectOutputScale: 1
    m_AlbedoBoost: 1
    m_EnvironmentLightingMode: 0
    m_EnableBakedLightmaps: 1
    m_EnableRealtimeLightmaps: 1
  m_LightmapEditorSettings:
    serializedVersion: 12
    m_Resolution: 2
    m_BakeResolution: 40
    m_AtlasSize: 1024
    m_AO: 0
    m_AOMaxDistance: 1
    m_CompAOExponent: 1
    m_CompAOExponentDirect: 0
    m_ExtractAmbientOcclusion: 0
    m_Padding: 2
    m_LightmapParameters: {fileID: 0}
    m_LightmapsBakeMode: 1
    m_TextureCompression: 1
    m_FinalGather: 0
    m_FinalGatherFiltering: 1
    m_FinalGatherRayCount: 256
    m_ReflectionCompression: 2
    m_MixedBakeMode: 2
    m_BakeBackend: 1
    m_PVRSampling: 1
    m_PVRDirectSampleCount: 32
    m_PVRSampleCount: 500
    m_PVRBounces: 2
    m_PVREnvironmentSampleCount: 500
    m_PVREnvironmentReferencePointCount: 2048
    m_PVRFilteringMode: 2
    m_PVRDenoiserTypeDirect: 0
    m_PVRDenoiserTypeIndirect: 0
    m_PVRDenoiserTypeAO: 0
    m_PVRFilterTypeDirect: 0
    m_PVRFilterTypeIndirect: 0
    m_PVRFilterTypeAO: 0
    m_PVREnvironmentMIS: 0
    m_PVRCulling: 1
    m_PVRFilteringGaussRadiusDirect: 1
    m_PVRFilteringGaussRadiusIndirect: 5
    m_PVRFilteringGaussRadiusAO: 2
    m_PVRFilteringAtrousPositionSigmaDirect: 0.5
    m_PVRFilteringAtrousPositionSigmaIndirect: 2
    m_PVRFilteringAtrousPositionSigmaAO: 1
    m_ExportTrainingData: 0
    m_TrainingDataDestination: TrainingData
  m_LightingDataAsset: {fileID: 0}
  m_UseShadowmask: 1
--- !u!196 &4
NavMeshSettings:
  serializedVersion: 2
  m_ObjectHideFlags: 0
  m_BuildSettings:
    serializedVersion: 2
    agentTypeID: 0
    agentRadius: 0.5
    agentHeight: 2
    agentSlope: 45
    agentClimb: 0.4
    ledgeDropHeight: 0
    maxJumpAcrossDistance: 0
    minRegionArea: 2
    manualCellSize: 0
    cellSize: 0.16666667
    manualTileSize: 0
    tileSize: 256
    accuratePlacement: 0
    debug:
      m_Flags: 0
  m_NavMeshData: {fileID: 0}
--- !u!114 &240922119 stripped
MonoBehaviour:
  m_CorrespondingSourceObject: {fileID: 44038945283428598, guid: a7757cbcbb205d841ba7f82f76342aaa,
    type: 3}
  m_PrefabInstance: {fileID: 466907670}
  m_PrefabAsset: {fileID: 0}
  m_GameObject: {fileID: 0}
  m_Enabled: 1
  m_EditorHideFlags: 0
  m_Script: {fileID: 11500000, guid: 314affd16bceddb4c99fbaa07de901d9, type: 3}
  m_Name: 
  m_EditorClassIdentifier: 
--- !u!1001 &466907670
PrefabInstance:
  m_ObjectHideFlags: 0
  serializedVersion: 2
  m_Modification:
    m_TransformParent: {fileID: 0}
    m_Modifications:
    - target: {fileID: 44038945355667307, guid: a7757cbcbb205d841ba7f82f76342aaa,
        type: 3}
      propertyPath: m_Name
      value: '[MasterCanvas]'
      objectReference: {fileID: 0}
    - target: {fileID: 44038945355667308, guid: a7757cbcbb205d841ba7f82f76342aaa,
        type: 3}
      propertyPath: m_LocalPosition.x
      value: 0
      objectReference: {fileID: 0}
    - target: {fileID: 44038945355667308, guid: a7757cbcbb205d841ba7f82f76342aaa,
        type: 3}
      propertyPath: m_LocalPosition.y
      value: 0
      objectReference: {fileID: 0}
    - target: {fileID: 44038945355667308, guid: a7757cbcbb205d841ba7f82f76342aaa,
        type: 3}
      propertyPath: m_LocalPosition.z
      value: 0
      objectReference: {fileID: 0}
    - target: {fileID: 44038945355667308, guid: a7757cbcbb205d841ba7f82f76342aaa,
        type: 3}
      propertyPath: m_LocalRotation.x
      value: 0
      objectReference: {fileID: 0}
    - target: {fileID: 44038945355667308, guid: a7757cbcbb205d841ba7f82f76342aaa,
        type: 3}
      propertyPath: m_LocalRotation.y
      value: 0
      objectReference: {fileID: 0}
    - target: {fileID: 44038945355667308, guid: a7757cbcbb205d841ba7f82f76342aaa,
        type: 3}
      propertyPath: m_LocalRotation.z
      value: 0
      objectReference: {fileID: 0}
    - target: {fileID: 44038945355667308, guid: a7757cbcbb205d841ba7f82f76342aaa,
        type: 3}
      propertyPath: m_LocalRotation.w
      value: 1
      objectReference: {fileID: 0}
    - target: {fileID: 44038945355667308, guid: a7757cbcbb205d841ba7f82f76342aaa,
        type: 3}
      propertyPath: m_RootOrder
      value: 4
      objectReference: {fileID: 0}
    - target: {fileID: 44038945355667308, guid: a7757cbcbb205d841ba7f82f76342aaa,
        type: 3}
      propertyPath: m_LocalEulerAnglesHint.x
      value: 0
      objectReference: {fileID: 0}
    - target: {fileID: 44038945355667308, guid: a7757cbcbb205d841ba7f82f76342aaa,
        type: 3}
      propertyPath: m_LocalEulerAnglesHint.y
      value: 0
      objectReference: {fileID: 0}
    - target: {fileID: 44038945355667308, guid: a7757cbcbb205d841ba7f82f76342aaa,
        type: 3}
      propertyPath: m_LocalEulerAnglesHint.z
      value: 0
      objectReference: {fileID: 0}
    - target: {fileID: 44038945355667308, guid: a7757cbcbb205d841ba7f82f76342aaa,
        type: 3}
      propertyPath: m_AnchoredPosition.x
      value: 0
      objectReference: {fileID: 0}
    - target: {fileID: 44038945355667308, guid: a7757cbcbb205d841ba7f82f76342aaa,
        type: 3}
      propertyPath: m_AnchoredPosition.y
      value: 0
      objectReference: {fileID: 0}
    - target: {fileID: 44038945355667308, guid: a7757cbcbb205d841ba7f82f76342aaa,
        type: 3}
      propertyPath: m_SizeDelta.x
      value: 0
      objectReference: {fileID: 0}
    - target: {fileID: 44038945355667308, guid: a7757cbcbb205d841ba7f82f76342aaa,
        type: 3}
      propertyPath: m_SizeDelta.y
      value: 0
      objectReference: {fileID: 0}
    - target: {fileID: 44038945355667308, guid: a7757cbcbb205d841ba7f82f76342aaa,
        type: 3}
      propertyPath: m_AnchorMin.x
      value: 0
      objectReference: {fileID: 0}
    - target: {fileID: 44038945355667308, guid: a7757cbcbb205d841ba7f82f76342aaa,
        type: 3}
      propertyPath: m_AnchorMin.y
      value: 0
      objectReference: {fileID: 0}
    - target: {fileID: 44038945355667308, guid: a7757cbcbb205d841ba7f82f76342aaa,
        type: 3}
      propertyPath: m_AnchorMax.x
      value: 0
      objectReference: {fileID: 0}
    - target: {fileID: 44038945355667308, guid: a7757cbcbb205d841ba7f82f76342aaa,
        type: 3}
      propertyPath: m_AnchorMax.y
      value: 0
      objectReference: {fileID: 0}
    - target: {fileID: 44038945355667308, guid: a7757cbcbb205d841ba7f82f76342aaa,
        type: 3}
      propertyPath: m_Pivot.x
      value: 0
      objectReference: {fileID: 0}
    - target: {fileID: 44038945355667308, guid: a7757cbcbb205d841ba7f82f76342aaa,
        type: 3}
      propertyPath: m_Pivot.y
      value: 0
      objectReference: {fileID: 0}
    - target: {fileID: 44038943433832143, guid: a7757cbcbb205d841ba7f82f76342aaa,
        type: 3}
      propertyPath: m_textInfo.characterCount
      value: 0
      objectReference: {fileID: 0}
    - target: {fileID: 44038943433832143, guid: a7757cbcbb205d841ba7f82f76342aaa,
        type: 3}
      propertyPath: m_textInfo.spaceCount
      value: 0
      objectReference: {fileID: 0}
    - target: {fileID: 44038943433832143, guid: a7757cbcbb205d841ba7f82f76342aaa,
        type: 3}
      propertyPath: m_textInfo.wordCount
      value: 0
      objectReference: {fileID: 0}
    - target: {fileID: 44038943433832143, guid: a7757cbcbb205d841ba7f82f76342aaa,
        type: 3}
      propertyPath: m_textInfo.lineCount
      value: 0
      objectReference: {fileID: 0}
    - target: {fileID: 44038943433832143, guid: a7757cbcbb205d841ba7f82f76342aaa,
        type: 3}
      propertyPath: m_textInfo.pageCount
      value: 0
      objectReference: {fileID: 0}
    - target: {fileID: 44038945027887301, guid: a7757cbcbb205d841ba7f82f76342aaa,
        type: 3}
      propertyPath: m_textInfo.characterCount
      value: 0
      objectReference: {fileID: 0}
    - target: {fileID: 44038945027887301, guid: a7757cbcbb205d841ba7f82f76342aaa,
        type: 3}
      propertyPath: m_textInfo.spaceCount
      value: 0
      objectReference: {fileID: 0}
    - target: {fileID: 44038945027887301, guid: a7757cbcbb205d841ba7f82f76342aaa,
        type: 3}
      propertyPath: m_textInfo.wordCount
      value: 0
      objectReference: {fileID: 0}
    - target: {fileID: 44038945027887301, guid: a7757cbcbb205d841ba7f82f76342aaa,
        type: 3}
      propertyPath: m_textInfo.lineCount
      value: 0
      objectReference: {fileID: 0}
    - target: {fileID: 44038945027887301, guid: a7757cbcbb205d841ba7f82f76342aaa,
        type: 3}
      propertyPath: m_textInfo.pageCount
      value: 0
      objectReference: {fileID: 0}
    - target: {fileID: 44038945196451247, guid: a7757cbcbb205d841ba7f82f76342aaa,
        type: 3}
      propertyPath: serializationData.Prefab
      value: 
      objectReference: {fileID: 44038945196451247, guid: a7757cbcbb205d841ba7f82f76342aaa,
        type: 3}
    - target: {fileID: 44038943469744413, guid: a7757cbcbb205d841ba7f82f76342aaa,
        type: 3}
      propertyPath: m_textInfo.characterCount
      value: 0
      objectReference: {fileID: 0}
    - target: {fileID: 44038943469744413, guid: a7757cbcbb205d841ba7f82f76342aaa,
        type: 3}
      propertyPath: m_textInfo.spaceCount
      value: 0
      objectReference: {fileID: 0}
    - target: {fileID: 44038943469744413, guid: a7757cbcbb205d841ba7f82f76342aaa,
        type: 3}
      propertyPath: m_textInfo.wordCount
      value: 0
      objectReference: {fileID: 0}
    - target: {fileID: 44038943469744413, guid: a7757cbcbb205d841ba7f82f76342aaa,
        type: 3}
      propertyPath: m_textInfo.lineCount
      value: 0
      objectReference: {fileID: 0}
    - target: {fileID: 44038943469744413, guid: a7757cbcbb205d841ba7f82f76342aaa,
        type: 3}
      propertyPath: m_textInfo.pageCount
      value: 0
      objectReference: {fileID: 0}
    - target: {fileID: 7060128030838223568, guid: a7757cbcbb205d841ba7f82f76342aaa,
        type: 3}
      propertyPath: serializationData.Prefab
      value: 
      objectReference: {fileID: 7060128030838223568, guid: a7757cbcbb205d841ba7f82f76342aaa,
        type: 3}
    - target: {fileID: 7060128031252702818, guid: a7757cbcbb205d841ba7f82f76342aaa,
        type: 3}
      propertyPath: m_textInfo.characterCount
      value: 0
      objectReference: {fileID: 0}
    - target: {fileID: 7060128031252702818, guid: a7757cbcbb205d841ba7f82f76342aaa,
        type: 3}
      propertyPath: m_textInfo.spaceCount
      value: 0
      objectReference: {fileID: 0}
    - target: {fileID: 7060128031252702818, guid: a7757cbcbb205d841ba7f82f76342aaa,
        type: 3}
      propertyPath: m_textInfo.wordCount
      value: 0
      objectReference: {fileID: 0}
    - target: {fileID: 7060128031252702818, guid: a7757cbcbb205d841ba7f82f76342aaa,
        type: 3}
      propertyPath: m_textInfo.lineCount
      value: 0
      objectReference: {fileID: 0}
    - target: {fileID: 7060128031252702818, guid: a7757cbcbb205d841ba7f82f76342aaa,
        type: 3}
      propertyPath: m_textInfo.pageCount
      value: 0
      objectReference: {fileID: 0}
    - target: {fileID: 7060128030645472981, guid: a7757cbcbb205d841ba7f82f76342aaa,
        type: 3}
      propertyPath: serializationData.Prefab
      value: 
      objectReference: {fileID: 7060128030645472981, guid: a7757cbcbb205d841ba7f82f76342aaa,
        type: 3}
    - target: {fileID: 7060128031563405927, guid: a7757cbcbb205d841ba7f82f76342aaa,
        type: 3}
      propertyPath: m_textInfo.characterCount
      value: 0
      objectReference: {fileID: 0}
    - target: {fileID: 7060128031563405927, guid: a7757cbcbb205d841ba7f82f76342aaa,
        type: 3}
      propertyPath: m_textInfo.spaceCount
      value: 0
      objectReference: {fileID: 0}
    - target: {fileID: 7060128031563405927, guid: a7757cbcbb205d841ba7f82f76342aaa,
        type: 3}
      propertyPath: m_textInfo.wordCount
      value: 0
      objectReference: {fileID: 0}
    - target: {fileID: 7060128031563405927, guid: a7757cbcbb205d841ba7f82f76342aaa,
        type: 3}
      propertyPath: m_textInfo.lineCount
      value: 0
      objectReference: {fileID: 0}
    - target: {fileID: 7060128031563405927, guid: a7757cbcbb205d841ba7f82f76342aaa,
        type: 3}
      propertyPath: m_textInfo.pageCount
      value: 0
      objectReference: {fileID: 0}
    - target: {fileID: 7060128030114379877, guid: a7757cbcbb205d841ba7f82f76342aaa,
        type: 3}
      propertyPath: serializationData.Prefab
      value: 
      objectReference: {fileID: 7060128030114379877, guid: a7757cbcbb205d841ba7f82f76342aaa,
        type: 3}
    - target: {fileID: 7060128032111291607, guid: a7757cbcbb205d841ba7f82f76342aaa,
        type: 3}
      propertyPath: m_textInfo.characterCount
      value: 0
      objectReference: {fileID: 0}
    - target: {fileID: 7060128032111291607, guid: a7757cbcbb205d841ba7f82f76342aaa,
        type: 3}
      propertyPath: m_textInfo.spaceCount
      value: 0
      objectReference: {fileID: 0}
    - target: {fileID: 7060128032111291607, guid: a7757cbcbb205d841ba7f82f76342aaa,
        type: 3}
      propertyPath: m_textInfo.wordCount
      value: 0
      objectReference: {fileID: 0}
    - target: {fileID: 7060128032111291607, guid: a7757cbcbb205d841ba7f82f76342aaa,
        type: 3}
      propertyPath: m_textInfo.lineCount
      value: 0
      objectReference: {fileID: 0}
    - target: {fileID: 7060128032111291607, guid: a7757cbcbb205d841ba7f82f76342aaa,
        type: 3}
      propertyPath: m_textInfo.pageCount
      value: 0
      objectReference: {fileID: 0}
    - target: {fileID: 7060128031790234846, guid: a7757cbcbb205d841ba7f82f76342aaa,
        type: 3}
      propertyPath: serializationData.Prefab
      value: 
      objectReference: {fileID: 7060128031790234846, guid: a7757cbcbb205d841ba7f82f76342aaa,
        type: 3}
    - target: {fileID: 7060128030300694636, guid: a7757cbcbb205d841ba7f82f76342aaa,
        type: 3}
      propertyPath: m_textInfo.characterCount
      value: 0
      objectReference: {fileID: 0}
    - target: {fileID: 7060128030300694636, guid: a7757cbcbb205d841ba7f82f76342aaa,
        type: 3}
      propertyPath: m_textInfo.spaceCount
      value: 0
      objectReference: {fileID: 0}
    - target: {fileID: 7060128030300694636, guid: a7757cbcbb205d841ba7f82f76342aaa,
        type: 3}
      propertyPath: m_textInfo.wordCount
      value: 0
      objectReference: {fileID: 0}
    - target: {fileID: 7060128030300694636, guid: a7757cbcbb205d841ba7f82f76342aaa,
        type: 3}
      propertyPath: m_textInfo.lineCount
      value: 0
      objectReference: {fileID: 0}
    - target: {fileID: 7060128030300694636, guid: a7757cbcbb205d841ba7f82f76342aaa,
        type: 3}
      propertyPath: m_textInfo.pageCount
      value: 0
      objectReference: {fileID: 0}
    - target: {fileID: 7060128030403456848, guid: a7757cbcbb205d841ba7f82f76342aaa,
        type: 3}
      propertyPath: serializationData.Prefab
      value: 
      objectReference: {fileID: 7060128030403456848, guid: a7757cbcbb205d841ba7f82f76342aaa,
        type: 3}
    - target: {fileID: 7060128031620365282, guid: a7757cbcbb205d841ba7f82f76342aaa,
        type: 3}
      propertyPath: m_textInfo.characterCount
      value: 0
      objectReference: {fileID: 0}
    - target: {fileID: 7060128031620365282, guid: a7757cbcbb205d841ba7f82f76342aaa,
        type: 3}
      propertyPath: m_textInfo.spaceCount
      value: 0
      objectReference: {fileID: 0}
    - target: {fileID: 7060128031620365282, guid: a7757cbcbb205d841ba7f82f76342aaa,
        type: 3}
      propertyPath: m_textInfo.wordCount
      value: 0
      objectReference: {fileID: 0}
    - target: {fileID: 7060128031620365282, guid: a7757cbcbb205d841ba7f82f76342aaa,
        type: 3}
      propertyPath: m_textInfo.lineCount
      value: 0
      objectReference: {fileID: 0}
    - target: {fileID: 7060128031620365282, guid: a7757cbcbb205d841ba7f82f76342aaa,
        type: 3}
      propertyPath: m_textInfo.pageCount
      value: 0
      objectReference: {fileID: 0}
    - target: {fileID: 44038945383638822, guid: a7757cbcbb205d841ba7f82f76342aaa,
        type: 3}
      propertyPath: m_textInfo.characterCount
      value: 0
      objectReference: {fileID: 0}
    - target: {fileID: 44038945383638822, guid: a7757cbcbb205d841ba7f82f76342aaa,
        type: 3}
      propertyPath: m_textInfo.wordCount
      value: 0
      objectReference: {fileID: 0}
    - target: {fileID: 44038945383638822, guid: a7757cbcbb205d841ba7f82f76342aaa,
        type: 3}
      propertyPath: m_textInfo.lineCount
      value: 0
      objectReference: {fileID: 0}
    - target: {fileID: 44038945383638822, guid: a7757cbcbb205d841ba7f82f76342aaa,
        type: 3}
      propertyPath: m_textInfo.pageCount
      value: 0
      objectReference: {fileID: 0}
    - target: {fileID: 44038944526315768, guid: a7757cbcbb205d841ba7f82f76342aaa,
        type: 3}
      propertyPath: m_textInfo.characterCount
      value: 0
      objectReference: {fileID: 0}
    - target: {fileID: 44038944526315768, guid: a7757cbcbb205d841ba7f82f76342aaa,
        type: 3}
      propertyPath: m_textInfo.spaceCount
      value: 0
      objectReference: {fileID: 0}
    - target: {fileID: 44038944526315768, guid: a7757cbcbb205d841ba7f82f76342aaa,
        type: 3}
      propertyPath: m_textInfo.wordCount
      value: 0
      objectReference: {fileID: 0}
    - target: {fileID: 44038944526315768, guid: a7757cbcbb205d841ba7f82f76342aaa,
        type: 3}
      propertyPath: m_textInfo.lineCount
      value: 0
      objectReference: {fileID: 0}
    - target: {fileID: 44038944526315768, guid: a7757cbcbb205d841ba7f82f76342aaa,
        type: 3}
      propertyPath: m_textInfo.pageCount
      value: 0
      objectReference: {fileID: 0}
    - target: {fileID: 44038944108844302, guid: a7757cbcbb205d841ba7f82f76342aaa,
        type: 3}
      propertyPath: m_textInfo.characterCount
      value: 0
      objectReference: {fileID: 0}
    - target: {fileID: 44038944108844302, guid: a7757cbcbb205d841ba7f82f76342aaa,
        type: 3}
      propertyPath: m_textInfo.wordCount
      value: 0
      objectReference: {fileID: 0}
    - target: {fileID: 44038944108844302, guid: a7757cbcbb205d841ba7f82f76342aaa,
        type: 3}
      propertyPath: m_textInfo.lineCount
      value: 0
      objectReference: {fileID: 0}
    - target: {fileID: 44038944108844302, guid: a7757cbcbb205d841ba7f82f76342aaa,
        type: 3}
      propertyPath: m_textInfo.pageCount
      value: 0
      objectReference: {fileID: 0}
    - target: {fileID: 44038943886495338, guid: a7757cbcbb205d841ba7f82f76342aaa,
        type: 3}
      propertyPath: m_textInfo.characterCount
      value: 0
      objectReference: {fileID: 0}
    - target: {fileID: 44038943886495338, guid: a7757cbcbb205d841ba7f82f76342aaa,
        type: 3}
      propertyPath: m_textInfo.spaceCount
      value: 0
      objectReference: {fileID: 0}
    - target: {fileID: 44038943886495338, guid: a7757cbcbb205d841ba7f82f76342aaa,
        type: 3}
      propertyPath: m_textInfo.wordCount
      value: 0
      objectReference: {fileID: 0}
    - target: {fileID: 44038943886495338, guid: a7757cbcbb205d841ba7f82f76342aaa,
        type: 3}
      propertyPath: m_textInfo.lineCount
      value: 0
      objectReference: {fileID: 0}
    - target: {fileID: 44038943886495338, guid: a7757cbcbb205d841ba7f82f76342aaa,
        type: 3}
      propertyPath: m_textInfo.pageCount
      value: 0
      objectReference: {fileID: 0}
    - target: {fileID: 44038944948794616, guid: a7757cbcbb205d841ba7f82f76342aaa,
        type: 3}
      propertyPath: m_textInfo.characterCount
      value: 0
      objectReference: {fileID: 0}
    - target: {fileID: 44038944948794616, guid: a7757cbcbb205d841ba7f82f76342aaa,
        type: 3}
      propertyPath: m_textInfo.wordCount
      value: 0
      objectReference: {fileID: 0}
    - target: {fileID: 44038944948794616, guid: a7757cbcbb205d841ba7f82f76342aaa,
        type: 3}
      propertyPath: m_textInfo.lineCount
      value: 0
      objectReference: {fileID: 0}
    - target: {fileID: 44038944948794616, guid: a7757cbcbb205d841ba7f82f76342aaa,
        type: 3}
      propertyPath: m_textInfo.pageCount
      value: 0
      objectReference: {fileID: 0}
    - target: {fileID: 44038943665199424, guid: a7757cbcbb205d841ba7f82f76342aaa,
        type: 3}
      propertyPath: m_textInfo.characterCount
      value: 0
      objectReference: {fileID: 0}
    - target: {fileID: 44038943665199424, guid: a7757cbcbb205d841ba7f82f76342aaa,
        type: 3}
      propertyPath: m_textInfo.spaceCount
      value: 0
      objectReference: {fileID: 0}
    - target: {fileID: 44038943665199424, guid: a7757cbcbb205d841ba7f82f76342aaa,
        type: 3}
      propertyPath: m_textInfo.wordCount
      value: 0
      objectReference: {fileID: 0}
    - target: {fileID: 44038943665199424, guid: a7757cbcbb205d841ba7f82f76342aaa,
        type: 3}
      propertyPath: m_textInfo.lineCount
      value: 0
      objectReference: {fileID: 0}
    - target: {fileID: 44038943665199424, guid: a7757cbcbb205d841ba7f82f76342aaa,
        type: 3}
      propertyPath: m_textInfo.pageCount
      value: 0
      objectReference: {fileID: 0}
    - target: {fileID: 44038944242336211, guid: a7757cbcbb205d841ba7f82f76342aaa,
        type: 3}
      propertyPath: m_textInfo.characterCount
      value: 0
      objectReference: {fileID: 0}
    - target: {fileID: 44038944242336211, guid: a7757cbcbb205d841ba7f82f76342aaa,
        type: 3}
      propertyPath: m_textInfo.wordCount
      value: 0
      objectReference: {fileID: 0}
    - target: {fileID: 44038944242336211, guid: a7757cbcbb205d841ba7f82f76342aaa,
        type: 3}
      propertyPath: m_textInfo.lineCount
      value: 0
      objectReference: {fileID: 0}
    - target: {fileID: 44038944242336211, guid: a7757cbcbb205d841ba7f82f76342aaa,
        type: 3}
      propertyPath: m_textInfo.pageCount
      value: 0
      objectReference: {fileID: 0}
    - target: {fileID: 44038944703889941, guid: a7757cbcbb205d841ba7f82f76342aaa,
        type: 3}
      propertyPath: m_textInfo.characterCount
      value: 0
      objectReference: {fileID: 0}
    - target: {fileID: 44038944703889941, guid: a7757cbcbb205d841ba7f82f76342aaa,
        type: 3}
      propertyPath: m_textInfo.spaceCount
      value: 0
      objectReference: {fileID: 0}
    - target: {fileID: 44038944703889941, guid: a7757cbcbb205d841ba7f82f76342aaa,
        type: 3}
      propertyPath: m_textInfo.wordCount
      value: 0
      objectReference: {fileID: 0}
    - target: {fileID: 44038944703889941, guid: a7757cbcbb205d841ba7f82f76342aaa,
        type: 3}
      propertyPath: m_textInfo.lineCount
      value: 0
      objectReference: {fileID: 0}
    - target: {fileID: 44038944703889941, guid: a7757cbcbb205d841ba7f82f76342aaa,
        type: 3}
      propertyPath: m_textInfo.pageCount
      value: 0
      objectReference: {fileID: 0}
    - target: {fileID: 44038944029882113, guid: a7757cbcbb205d841ba7f82f76342aaa,
        type: 3}
      propertyPath: m_textInfo.characterCount
      value: 0
      objectReference: {fileID: 0}
    - target: {fileID: 44038944029882113, guid: a7757cbcbb205d841ba7f82f76342aaa,
        type: 3}
      propertyPath: m_textInfo.spaceCount
      value: 0
      objectReference: {fileID: 0}
    - target: {fileID: 44038944029882113, guid: a7757cbcbb205d841ba7f82f76342aaa,
        type: 3}
      propertyPath: m_textInfo.wordCount
      value: 0
      objectReference: {fileID: 0}
    - target: {fileID: 44038944029882113, guid: a7757cbcbb205d841ba7f82f76342aaa,
        type: 3}
      propertyPath: m_textInfo.lineCount
      value: 0
      objectReference: {fileID: 0}
    - target: {fileID: 44038944029882113, guid: a7757cbcbb205d841ba7f82f76342aaa,
        type: 3}
      propertyPath: m_textInfo.pageCount
      value: 0
      objectReference: {fileID: 0}
    - target: {fileID: 7060128030787651536, guid: a7757cbcbb205d841ba7f82f76342aaa,
        type: 3}
      propertyPath: serializationData.Prefab
      value: 
      objectReference: {fileID: 7060128030787651536, guid: a7757cbcbb205d841ba7f82f76342aaa,
        type: 3}
    - target: {fileID: 7060128031437476706, guid: a7757cbcbb205d841ba7f82f76342aaa,
        type: 3}
      propertyPath: m_textInfo.characterCount
      value: 0
      objectReference: {fileID: 0}
    - target: {fileID: 7060128031437476706, guid: a7757cbcbb205d841ba7f82f76342aaa,
        type: 3}
      propertyPath: m_textInfo.spaceCount
      value: 0
      objectReference: {fileID: 0}
    - target: {fileID: 7060128031437476706, guid: a7757cbcbb205d841ba7f82f76342aaa,
        type: 3}
      propertyPath: m_textInfo.wordCount
      value: 0
      objectReference: {fileID: 0}
    - target: {fileID: 7060128031437476706, guid: a7757cbcbb205d841ba7f82f76342aaa,
        type: 3}
      propertyPath: m_textInfo.lineCount
      value: 0
      objectReference: {fileID: 0}
    - target: {fileID: 7060128031437476706, guid: a7757cbcbb205d841ba7f82f76342aaa,
        type: 3}
      propertyPath: m_textInfo.pageCount
      value: 0
      objectReference: {fileID: 0}
    - target: {fileID: 7060128030002388294, guid: a7757cbcbb205d841ba7f82f76342aaa,
        type: 3}
      propertyPath: serializationData.Prefab
      value: 
      objectReference: {fileID: 7060128030002388294, guid: a7757cbcbb205d841ba7f82f76342aaa,
        type: 3}
    - target: {fileID: 7060128032004606452, guid: a7757cbcbb205d841ba7f82f76342aaa,
        type: 3}
      propertyPath: m_textInfo.characterCount
      value: 0
      objectReference: {fileID: 0}
    - target: {fileID: 7060128032004606452, guid: a7757cbcbb205d841ba7f82f76342aaa,
        type: 3}
      propertyPath: m_textInfo.spaceCount
      value: 0
      objectReference: {fileID: 0}
    - target: {fileID: 7060128032004606452, guid: a7757cbcbb205d841ba7f82f76342aaa,
        type: 3}
      propertyPath: m_textInfo.wordCount
      value: 0
      objectReference: {fileID: 0}
    - target: {fileID: 7060128032004606452, guid: a7757cbcbb205d841ba7f82f76342aaa,
        type: 3}
      propertyPath: m_textInfo.lineCount
      value: 0
      objectReference: {fileID: 0}
    - target: {fileID: 7060128032004606452, guid: a7757cbcbb205d841ba7f82f76342aaa,
        type: 3}
      propertyPath: m_textInfo.pageCount
      value: 0
      objectReference: {fileID: 0}
    - target: {fileID: 7060128030649093679, guid: a7757cbcbb205d841ba7f82f76342aaa,
        type: 3}
      propertyPath: serializationData.Prefab
      value: 
      objectReference: {fileID: 7060128030649093679, guid: a7757cbcbb205d841ba7f82f76342aaa,
        type: 3}
    - target: {fileID: 7060128031576529565, guid: a7757cbcbb205d841ba7f82f76342aaa,
        type: 3}
      propertyPath: m_textInfo.characterCount
      value: 0
      objectReference: {fileID: 0}
    - target: {fileID: 7060128031576529565, guid: a7757cbcbb205d841ba7f82f76342aaa,
        type: 3}
      propertyPath: m_textInfo.spaceCount
      value: 0
      objectReference: {fileID: 0}
    - target: {fileID: 7060128031576529565, guid: a7757cbcbb205d841ba7f82f76342aaa,
        type: 3}
      propertyPath: m_textInfo.wordCount
      value: 0
      objectReference: {fileID: 0}
    - target: {fileID: 7060128031576529565, guid: a7757cbcbb205d841ba7f82f76342aaa,
        type: 3}
      propertyPath: m_textInfo.lineCount
      value: 0
      objectReference: {fileID: 0}
    - target: {fileID: 7060128031576529565, guid: a7757cbcbb205d841ba7f82f76342aaa,
        type: 3}
      propertyPath: m_textInfo.pageCount
      value: 0
      objectReference: {fileID: 0}
    - target: {fileID: 7060128030808179355, guid: a7757cbcbb205d841ba7f82f76342aaa,
        type: 3}
      propertyPath: serializationData.Prefab
      value: 
      objectReference: {fileID: 7060128030808179355, guid: a7757cbcbb205d841ba7f82f76342aaa,
        type: 3}
    - target: {fileID: 7060128031198811689, guid: a7757cbcbb205d841ba7f82f76342aaa,
        type: 3}
      propertyPath: m_textInfo.characterCount
      value: 0
      objectReference: {fileID: 0}
    - target: {fileID: 7060128031198811689, guid: a7757cbcbb205d841ba7f82f76342aaa,
        type: 3}
      propertyPath: m_textInfo.spaceCount
      value: 0
      objectReference: {fileID: 0}
    - target: {fileID: 7060128031198811689, guid: a7757cbcbb205d841ba7f82f76342aaa,
        type: 3}
      propertyPath: m_textInfo.wordCount
      value: 0
      objectReference: {fileID: 0}
    - target: {fileID: 7060128031198811689, guid: a7757cbcbb205d841ba7f82f76342aaa,
        type: 3}
      propertyPath: m_textInfo.lineCount
      value: 0
      objectReference: {fileID: 0}
    - target: {fileID: 7060128031198811689, guid: a7757cbcbb205d841ba7f82f76342aaa,
        type: 3}
      propertyPath: m_textInfo.pageCount
      value: 0
      objectReference: {fileID: 0}
    - target: {fileID: 7060128031517359943, guid: a7757cbcbb205d841ba7f82f76342aaa,
        type: 3}
      propertyPath: serializationData.Prefab
      value: 
      objectReference: {fileID: 7060128031517359943, guid: a7757cbcbb205d841ba7f82f76342aaa,
        type: 3}
    - target: {fileID: 7060128030557285365, guid: a7757cbcbb205d841ba7f82f76342aaa,
        type: 3}
      propertyPath: m_textInfo.characterCount
      value: 0
      objectReference: {fileID: 0}
    - target: {fileID: 7060128030557285365, guid: a7757cbcbb205d841ba7f82f76342aaa,
        type: 3}
      propertyPath: m_textInfo.spaceCount
      value: 0
      objectReference: {fileID: 0}
    - target: {fileID: 7060128030557285365, guid: a7757cbcbb205d841ba7f82f76342aaa,
        type: 3}
      propertyPath: m_textInfo.wordCount
      value: 0
      objectReference: {fileID: 0}
    - target: {fileID: 7060128030557285365, guid: a7757cbcbb205d841ba7f82f76342aaa,
        type: 3}
      propertyPath: m_textInfo.lineCount
      value: 0
      objectReference: {fileID: 0}
    - target: {fileID: 7060128030557285365, guid: a7757cbcbb205d841ba7f82f76342aaa,
        type: 3}
      propertyPath: m_textInfo.pageCount
      value: 0
      objectReference: {fileID: 0}
    - target: {fileID: 7060128031074314319, guid: a7757cbcbb205d841ba7f82f76342aaa,
        type: 3}
      propertyPath: serializationData.Prefab
      value: 
      objectReference: {fileID: 7060128031074314319, guid: a7757cbcbb205d841ba7f82f76342aaa,
        type: 3}
    - target: {fileID: 7060128030950030589, guid: a7757cbcbb205d841ba7f82f76342aaa,
        type: 3}
      propertyPath: m_textInfo.characterCount
      value: 0
      objectReference: {fileID: 0}
    - target: {fileID: 7060128030950030589, guid: a7757cbcbb205d841ba7f82f76342aaa,
        type: 3}
      propertyPath: m_textInfo.spaceCount
      value: 0
      objectReference: {fileID: 0}
    - target: {fileID: 7060128030950030589, guid: a7757cbcbb205d841ba7f82f76342aaa,
        type: 3}
      propertyPath: m_textInfo.wordCount
      value: 0
      objectReference: {fileID: 0}
    - target: {fileID: 7060128030950030589, guid: a7757cbcbb205d841ba7f82f76342aaa,
        type: 3}
      propertyPath: m_textInfo.lineCount
      value: 0
      objectReference: {fileID: 0}
    - target: {fileID: 7060128030950030589, guid: a7757cbcbb205d841ba7f82f76342aaa,
        type: 3}
      propertyPath: m_textInfo.pageCount
      value: 0
      objectReference: {fileID: 0}
    - target: {fileID: 44038944765356975, guid: a7757cbcbb205d841ba7f82f76342aaa,
        type: 3}
      propertyPath: ShowBehavior.OnFinished.Event.m_PersistentCalls.m_Calls.Array.size
      value: 2
      objectReference: {fileID: 0}
    - target: {fileID: 44038944765356975, guid: a7757cbcbb205d841ba7f82f76342aaa,
        type: 3}
      propertyPath: ShowBehavior.OnFinished.Event.m_PersistentCalls.m_Calls.Array.data[1].m_Mode
      value: 6
      objectReference: {fileID: 0}
    - target: {fileID: 44038944765356975, guid: a7757cbcbb205d841ba7f82f76342aaa,
        type: 3}
      propertyPath: ShowBehavior.OnFinished.Event.m_PersistentCalls.m_Calls.Array.data[1].m_CallState
      value: 2
      objectReference: {fileID: 0}
    - target: {fileID: 44038944765356975, guid: a7757cbcbb205d841ba7f82f76342aaa,
        type: 3}
      propertyPath: ShowBehavior.OnFinished.Event.m_PersistentCalls.m_Calls.Array.data[1].m_Target
      value: 
      objectReference: {fileID: 240922119}
    - target: {fileID: 44038944765356975, guid: a7757cbcbb205d841ba7f82f76342aaa,
        type: 3}
      propertyPath: ShowBehavior.OnFinished.Event.m_PersistentCalls.m_Calls.Array.data[1].m_MethodName
      value: Hide
      objectReference: {fileID: 0}
    - target: {fileID: 44038944765356975, guid: a7757cbcbb205d841ba7f82f76342aaa,
        type: 3}
      propertyPath: ShowBehavior.OnFinished.Event.m_PersistentCalls.m_Calls.Array.data[1].m_Arguments.m_ObjectArgumentAssemblyTypeName
      value: UnityEngine.Object, UnityEngine
      objectReference: {fileID: 0}
    - target: {fileID: 44038944765356975, guid: a7757cbcbb205d841ba7f82f76342aaa,
        type: 3}
      propertyPath: ShowBehavior.OnFinished.Event.m_PersistentCalls.m_Calls.Array.data[1].m_Arguments.m_BoolArgument
      value: 1
      objectReference: {fileID: 0}
    - target: {fileID: 44038944754635114, guid: a7757cbcbb205d841ba7f82f76342aaa,
        type: 3}
      propertyPath: OnClick.OnTrigger.Event.m_PersistentCalls.m_Calls.Array.size
      value: 1
      objectReference: {fileID: 0}
    - target: {fileID: 44038944754635114, guid: a7757cbcbb205d841ba7f82f76342aaa,
        type: 3}
      propertyPath: OnClick.OnTrigger.Event.m_PersistentCalls.m_Calls.Array.data[1].m_Arguments.m_BoolArgument
      value: 0
      objectReference: {fileID: 0}
    m_RemovedComponents: []
  m_SourcePrefab: {fileID: 100100000, guid: a7757cbcbb205d841ba7f82f76342aaa, type: 3}
--- !u!1 &705507993
GameObject:
  m_ObjectHideFlags: 0
  m_CorrespondingSourceObject: {fileID: 0}
  m_PrefabInstance: {fileID: 0}
  m_PrefabAsset: {fileID: 0}
  serializedVersion: 6
  m_Component:
  - component: {fileID: 705507995}
  - component: {fileID: 705507994}
  m_Layer: 0
  m_Name: Directional Light
  m_TagString: Untagged
  m_Icon: {fileID: 0}
  m_NavMeshLayer: 0
  m_StaticEditorFlags: 0
  m_IsActive: 1
--- !u!108 &705507994
Light:
  m_ObjectHideFlags: 0
  m_CorrespondingSourceObject: {fileID: 0}
  m_PrefabInstance: {fileID: 0}
  m_PrefabAsset: {fileID: 0}
  m_GameObject: {fileID: 705507993}
  m_Enabled: 1
  serializedVersion: 9
  m_Type: 1
  m_Color: {r: 1, g: 0.95686275, b: 0.8392157, a: 1}
  m_Intensity: 1
  m_Range: 10
  m_SpotAngle: 30
  m_InnerSpotAngle: 21.802082
  m_CookieSize: 10
  m_Shadows:
    m_Type: 2
    m_Resolution: -1
    m_CustomResolution: -1
    m_Strength: 1
    m_Bias: 0.05
    m_NormalBias: 0.4
    m_NearPlane: 0.2
    m_CullingMatrixOverride:
      e00: 1
      e01: 0
      e02: 0
      e03: 0
      e10: 0
      e11: 1
      e12: 0
      e13: 0
      e20: 0
      e21: 0
      e22: 1
      e23: 0
      e30: 0
      e31: 0
      e32: 0
      e33: 1
    m_UseCullingMatrixOverride: 0
  m_Cookie: {fileID: 0}
  m_DrawHalo: 0
  m_Flare: {fileID: 0}
  m_RenderMode: 0
  m_CullingMask:
    serializedVersion: 2
    m_Bits: 4294967295
  m_RenderingLayerMask: 1
  m_Lightmapping: 1
  m_LightShadowCasterMode: 0
  m_AreaSize: {x: 1, y: 1}
  m_BounceIntensity: 1
  m_ColorTemperature: 6570
  m_UseColorTemperature: 0
  m_BoundingSphereOverride: {x: 0, y: 0, z: 0, w: 0}
  m_UseBoundingSphereOverride: 0
  m_ShadowRadius: 0
  m_ShadowAngle: 0
--- !u!4 &705507995
Transform:
  m_ObjectHideFlags: 0
  m_CorrespondingSourceObject: {fileID: 0}
  m_PrefabInstance: {fileID: 0}
  m_PrefabAsset: {fileID: 0}
  m_GameObject: {fileID: 705507993}
  m_LocalRotation: {x: 0.40821788, y: -0.23456968, z: 0.10938163, w: 0.8754261}
  m_LocalPosition: {x: 0, y: 3, z: 0}
  m_LocalScale: {x: 1, y: 1, z: 1}
  m_Children: []
  m_Father: {fileID: 0}
  m_RootOrder: 1
  m_LocalEulerAnglesHint: {x: 50, y: -30, z: 0}
--- !u!1 &963194225
GameObject:
  m_ObjectHideFlags: 0
  m_CorrespondingSourceObject: {fileID: 0}
  m_PrefabInstance: {fileID: 0}
  m_PrefabAsset: {fileID: 0}
  serializedVersion: 6
  m_Component:
  - component: {fileID: 963194228}
  - component: {fileID: 963194227}
  - component: {fileID: 963194226}
  m_Layer: 0
  m_Name: Main Camera
  m_TagString: MainCamera
  m_Icon: {fileID: 0}
  m_NavMeshLayer: 0
  m_StaticEditorFlags: 0
  m_IsActive: 1
--- !u!81 &963194226
AudioListener:
  m_ObjectHideFlags: 0
  m_CorrespondingSourceObject: {fileID: 0}
  m_PrefabInstance: {fileID: 0}
  m_PrefabAsset: {fileID: 0}
  m_GameObject: {fileID: 963194225}
  m_Enabled: 1
--- !u!20 &963194227
Camera:
  m_ObjectHideFlags: 0
  m_CorrespondingSourceObject: {fileID: 0}
  m_PrefabInstance: {fileID: 0}
  m_PrefabAsset: {fileID: 0}
  m_GameObject: {fileID: 963194225}
  m_Enabled: 1
  serializedVersion: 2
  m_ClearFlags: 1
  m_BackGroundColor: {r: 0.19215687, g: 0.3019608, b: 0.4745098, a: 0}
  m_projectionMatrixMode: 1
  m_GateFitMode: 2
  m_FOVAxisMode: 0
  m_SensorSize: {x: 36, y: 24}
  m_LensShift: {x: 0, y: 0}
  m_FocalLength: 50
  m_NormalizedViewPortRect:
    serializedVersion: 2
    x: 0
    y: 0
    width: 1
    height: 1
  near clip plane: 0.3
  far clip plane: 1000
  field of view: 60
  orthographic: 0
  orthographic size: 5
  m_Depth: -1
  m_CullingMask:
    serializedVersion: 2
    m_Bits: 4294967295
  m_RenderingPath: -1
  m_TargetTexture: {fileID: 0}
  m_TargetDisplay: 0
  m_TargetEye: 3
  m_HDR: 1
  m_AllowMSAA: 1
  m_AllowDynamicResolution: 0
  m_ForceIntoRT: 0
  m_OcclusionCulling: 1
  m_StereoConvergence: 10
  m_StereoSeparation: 0.022
--- !u!4 &963194228
Transform:
  m_ObjectHideFlags: 0
  m_CorrespondingSourceObject: {fileID: 0}
  m_PrefabInstance: {fileID: 0}
  m_PrefabAsset: {fileID: 0}
  m_GameObject: {fileID: 963194225}
  m_LocalRotation: {x: 0, y: 0, z: 0, w: 1}
  m_LocalPosition: {x: 0, y: 0, z: -2.5}
  m_LocalScale: {x: 1, y: 1, z: 1}
  m_Children: []
  m_Father: {fileID: 0}
  m_RootOrder: 0
  m_LocalEulerAnglesHint: {x: 0, y: 0, z: 0}
--- !u!1 &986404917 stripped
GameObject:
  m_CorrespondingSourceObject: {fileID: 44038944765356971, guid: a7757cbcbb205d841ba7f82f76342aaa,
    type: 3}
  m_PrefabInstance: {fileID: 466907670}
  m_PrefabAsset: {fileID: 0}
--- !u!114 &986404918
MonoBehaviour:
  m_ObjectHideFlags: 0
  m_CorrespondingSourceObject: {fileID: 0}
  m_PrefabInstance: {fileID: 0}
  m_PrefabAsset: {fileID: 0}
  m_GameObject: {fileID: 986404917}
  m_Enabled: 1
  m_EditorHideFlags: 0
  m_Script: {fileID: 11500000, guid: 3312d7739989d2b4e91e6319e9a96d76, type: 3}
  m_Name: 
  m_EditorClassIdentifier: 
--- !u!1 &1098540519
GameObject:
  m_ObjectHideFlags: 0
  m_CorrespondingSourceObject: {fileID: 0}
  m_PrefabInstance: {fileID: 0}
  m_PrefabAsset: {fileID: 0}
  serializedVersion: 6
  m_Component:
  - component: {fileID: 1098540520}
  m_Layer: 0
  m_Name: Game Event Listener
  m_TagString: Untagged
  m_Icon: {fileID: 0}
  m_NavMeshLayer: 0
  m_StaticEditorFlags: 0
  m_IsActive: 1
--- !u!4 &1098540520
Transform:
  m_ObjectHideFlags: 0
  m_CorrespondingSourceObject: {fileID: 0}
  m_PrefabInstance: {fileID: 0}
  m_PrefabAsset: {fileID: 0}
  m_GameObject: {fileID: 1098540519}
  m_LocalRotation: {x: 0, y: 0, z: 0, w: 1}
  m_LocalPosition: {x: 0, y: 0, z: 0}
  m_LocalScale: {x: 1, y: 1, z: 1}
  m_Children: []
  m_Father: {fileID: 0}
  m_RootOrder: 3
  m_LocalEulerAnglesHint: {x: 0, y: 0, z: 0}
--- !u!1 &1113749812
GameObject:
  m_ObjectHideFlags: 0
  m_CorrespondingSourceObject: {fileID: 0}
  m_PrefabInstance: {fileID: 0}
  m_PrefabAsset: {fileID: 0}
  serializedVersion: 6
  m_Component:
  - component: {fileID: 1113749815}
  - component: {fileID: 1113749814}
  - component: {fileID: 1113749813}
  m_Layer: 0
  m_Name: EventSystem
  m_TagString: Untagged
  m_Icon: {fileID: 0}
  m_NavMeshLayer: 0
  m_StaticEditorFlags: 0
  m_IsActive: 1
--- !u!114 &1113749813
MonoBehaviour:
  m_ObjectHideFlags: 0
  m_CorrespondingSourceObject: {fileID: 0}
  m_PrefabInstance: {fileID: 0}
  m_PrefabAsset: {fileID: 0}
  m_GameObject: {fileID: 1113749812}
  m_Enabled: 1
  m_EditorHideFlags: 0
  m_Script: {fileID: 11500000, guid: 4f231c4fb786f3946a6b90b886c48677, type: 3}
  m_Name: 
  m_EditorClassIdentifier: 
  m_HorizontalAxis: Horizontal
  m_VerticalAxis: Vertical
  m_SubmitButton: Submit
  m_CancelButton: Cancel
  m_InputActionsPerSecond: 10
  m_RepeatDelay: 0.5
  m_ForceModuleActive: 0
--- !u!114 &1113749814
MonoBehaviour:
  m_ObjectHideFlags: 0
  m_CorrespondingSourceObject: {fileID: 0}
  m_PrefabInstance: {fileID: 0}
  m_PrefabAsset: {fileID: 0}
  m_GameObject: {fileID: 1113749812}
  m_Enabled: 1
  m_EditorHideFlags: 0
  m_Script: {fileID: 11500000, guid: 76c392e42b5098c458856cdf6ecaaaa1, type: 3}
  m_Name: 
  m_EditorClassIdentifier: 
  m_FirstSelected: {fileID: 0}
  m_sendNavigationEvents: 1
  m_DragThreshold: 10
--- !u!4 &1113749815
Transform:
  m_ObjectHideFlags: 0
  m_CorrespondingSourceObject: {fileID: 0}
  m_PrefabInstance: {fileID: 0}
  m_PrefabAsset: {fileID: 0}
  m_GameObject: {fileID: 1113749812}
  m_LocalRotation: {x: 0, y: 0, z: 0, w: 1}
  m_LocalPosition: {x: 0, y: 0, z: 0}
  m_LocalScale: {x: 1, y: 1, z: 1}
  m_Children: []
  m_Father: {fileID: 0}
  m_RootOrder: 2
  m_LocalEulerAnglesHint: {x: 0, y: 0, z: 0}
